[
  "Берег моря. Чути розбещенi крики морських птахiв, ревiння моржа, а також iншi звуки, iздаваємиє різною морською сволотою. Входить Гамлєт, вдягнутий в зручну приємну товстовку і такі ж самі парусинові штани. Гамлєт красиво підперезаний вузеньким шкіряним пояском. Він босий, бородатий і пацаватий. В руках у нього дебелий дрючок.",
  "Мудило в спортивних штанцях і Люда зникають. Вбігає зразу п’ять здоровенних мудил, вони несуть мішки, повні масла, а в зубах у кожного стирчить по цілій пачці. Мудила насилу совають язиками, силячись його прожувать, при цьому вони противно плямкають.",
  "Поки ми з вами отут теревеним, пенсіонери не получають пенсію, солдати патрони, газовики газ, нафтовики нафту, а в Дніпрі перевелась риба, а в коморах миші, бо нема що гризти, так що без Росії нам, товарищі і панове, повний гаплик, що не ясно?"
]